capstone data analysis - creative
…
# Top 10 exchange counts
exchange_counts <- dat_kpis |>
  count(exchange, sort = TRUE) 

# print the results
print("Top 10 App/URL Counts (by row count)")

[1] "Top 10 App/URL Counts (by row count)"

print(app_url_counts)

# A tibble: 235 × 2
   app_url              n
   <chr>            <int>
 1 weather.com         37
 2 ebay.com            32
 3 msn.com             29
 4 yahoo.com           27
 5 mail.yahoo.com      25
 6 realtor.com         24
 7 mail.aol.com        19
 8 biblegateway.com    17
 9 accuweather.com     15
10 outlook.live.com    15
# ℹ 225 more rows
…
